EESchema Schematic File Version 2
LIBS:power
LIBS:device
LIBS:transistors
LIBS:conn
LIBS:linear
LIBS:regul
LIBS:74xx
LIBS:cmos4000
LIBS:adc-dac
LIBS:memory
LIBS:xilinx
LIBS:special
LIBS:microcontrollers
LIBS:dsp
LIBS:microchip
LIBS:analog_switches
LIBS:motorola
LIBS:texas
LIBS:intel
LIBS:audio
LIBS:interface
LIBS:digital-audio
LIBS:philips
LIBS:display
LIBS:cypress
LIBS:siliconi
LIBS:opto
LIBS:atmel
LIBS:contrib
LIBS:valves
LIBS:Fuente_partida_9v-cache
EELAYER 27 0
EELAYER END
$Descr A4 11693 8268
encoding utf-8
Sheet 1 2
Title "Amplificador de instrumentacion"
Date "23 nov 2016"
Rev ""
Comp ""
Comment1 ""
Comment2 ""
Comment3 ""
Comment4 ""
$EndDescr
$Comp
L DIODE D1
U 1 1 58336008
P 4200 3900
F 0 "D1" H 4200 4000 40  0000 C CNN
F 1 "DIODE" H 4200 3800 40  0000 C CNN
F 2 "~" H 4200 3900 60  0000 C CNN
F 3 "~" H 4200 3900 60  0000 C CNN
	1    4200 3900
	0    -1   -1   0   
$EndComp
$Comp
L DIODE D2
U 1 1 58336017
P 4200 4850
F 0 "D2" H 4200 4950 40  0000 C CNN
F 1 "DIODE" H 4200 4750 40  0000 C CNN
F 2 "~" H 4200 4850 60  0000 C CNN
F 3 "~" H 4200 4850 60  0000 C CNN
	1    4200 4850
	0    -1   -1   0   
$EndComp
$Comp
L DIODE D4
U 1 1 58336026
P 6100 5600
F 0 "D4" H 6100 5700 40  0000 C CNN
F 1 "DIODE" H 6100 5500 40  0000 C CNN
F 2 "~" H 6100 5600 60  0000 C CNN
F 3 "~" H 6100 5600 60  0000 C CNN
	1    6100 5600
	-1   0    0    1   
$EndComp
$Comp
L DIODE D3
U 1 1 58336035
P 6100 3000
F 0 "D3" H 6100 3100 40  0000 C CNN
F 1 "DIODE" H 6100 2900 40  0000 C CNN
F 2 "~" H 6100 3000 60  0000 C CNN
F 3 "~" H 6100 3000 60  0000 C CNN
	1    6100 3000
	-1   0    0    1   
$EndComp
$Comp
L DIODE D6
U 1 1 58336044
P 7700 4800
F 0 "D6" H 7700 4900 40  0000 C CNN
F 1 "DIODE" H 7700 4700 40  0000 C CNN
F 2 "~" H 7700 4800 60  0000 C CNN
F 3 "~" H 7700 4800 60  0000 C CNN
	1    7700 4800
	0    -1   -1   0   
$EndComp
$Comp
L DIODE D5
U 1 1 58336053
P 7700 3900
F 0 "D5" H 7700 4000 40  0000 C CNN
F 1 "DIODE" H 7700 3800 40  0000 C CNN
F 2 "~" H 7700 3900 60  0000 C CNN
F 3 "~" H 7700 3900 60  0000 C CNN
	1    7700 3900
	0    -1   -1   0   
$EndComp
$Comp
L CAPAPOL C1
U 1 1 58336062
P 4800 3900
F 0 "C1" H 4850 4000 40  0000 L CNN
F 1 "4700uF" H 4850 3800 40  0000 L CNN
F 2 "~" H 4900 3750 30  0000 C CNN
F 3 "~" H 4800 3900 300 0000 C CNN
	1    4800 3900
	1    0    0    -1  
$EndComp
$Comp
L CAPAPOL C7
U 1 1 58336071
P 7100 3900
F 0 "C7" H 7150 4000 40  0000 L CNN
F 1 "4700uF" H 7150 3800 40  0000 L CNN
F 2 "~" H 7200 3750 30  0000 C CNN
F 3 "~" H 7100 3900 300 0000 C CNN
	1    7100 3900
	1    0    0    -1  
$EndComp
$Comp
L CAPAPOL C2
U 1 1 58336080
P 4800 4800
F 0 "C2" H 4850 4900 40  0000 L CNN
F 1 "4700uF" H 4850 4700 40  0000 L CNN
F 2 "~" H 4900 4650 30  0000 C CNN
F 3 "~" H 4800 4800 300 0000 C CNN
	1    4800 4800
	1    0    0    -1  
$EndComp
$Comp
L CAPAPOL C8
U 1 1 5833608F
P 7100 4800
F 0 "C8" H 7150 4900 40  0000 L CNN
F 1 "4700uF" H 7150 4700 40  0000 L CNN
F 2 "~" H 7200 4650 30  0000 C CNN
F 3 "~" H 7100 4800 300 0000 C CNN
	1    7100 4800
	1    0    0    -1  
$EndComp
$Comp
L C C3
U 1 1 5833609E
P 5350 3900
F 0 "C3" H 5350 4000 40  0000 L CNN
F 1 "100nF" H 5356 3815 40  0000 L CNN
F 2 "~" H 5388 3750 30  0000 C CNN
F 3 "~" H 5350 3900 60  0000 C CNN
	1    5350 3900
	1    0    0    -1  
$EndComp
$Comp
L C C5
U 1 1 583360AD
P 6650 3900
F 0 "C5" H 6650 4000 40  0000 L CNN
F 1 "100nF" H 6656 3815 40  0000 L CNN
F 2 "~" H 6688 3750 30  0000 C CNN
F 3 "~" H 6650 3900 60  0000 C CNN
	1    6650 3900
	1    0    0    -1  
$EndComp
$Comp
L C C4
U 1 1 583360BC
P 5350 4800
F 0 "C4" H 5350 4900 40  0000 L CNN
F 1 "100nF" H 5356 4715 40  0000 L CNN
F 2 "~" H 5388 4650 30  0000 C CNN
F 3 "~" H 5350 4800 60  0000 C CNN
	1    5350 4800
	1    0    0    -1  
$EndComp
$Comp
L C C6
U 1 1 583360CB
P 6650 4800
F 0 "C6" H 6650 4900 40  0000 L CNN
F 1 "100nF" H 6656 4715 40  0000 L CNN
F 2 "~" H 6688 4650 30  0000 C CNN
F 3 "~" H 6650 4800 60  0000 C CNN
	1    6650 4800
	1    0    0    -1  
$EndComp
$Comp
L CONN_2 P1
U 1 1 583360DA
P 3350 4350
F 0 "P1" V 3300 4350 40  0000 C CNN
F 1 "CONN_2" V 3400 4350 40  0000 C CNN
F 2 "" H 3350 4350 60  0000 C CNN
F 3 "" H 3350 4350 60  0000 C CNN
	1    3350 4350
	-1   0    0    1   
$EndComp
Wire Wire Line
	3700 4250 4200 4250
Wire Wire Line
	4200 4100 4200 4650
Connection ~ 4200 4250
Wire Wire Line
	4200 3500 4200 3700
Wire Wire Line
	4800 3700 4800 3500
Connection ~ 4800 3500
Wire Wire Line
	5350 3000 5350 3700
Connection ~ 5350 3500
Wire Wire Line
	4200 5200 5700 5200
Wire Wire Line
	4200 5200 4200 5050
Wire Wire Line
	4800 5000 4800 5200
Connection ~ 4800 5200
Wire Wire Line
	5350 5000 5350 5600
Connection ~ 5350 5200
Wire Wire Line
	5350 5600 5900 5600
Wire Wire Line
	5900 3000 5350 3000
Wire Wire Line
	6100 3800 6100 4900
Wire Wire Line
	6500 3500 8600 3500
Wire Wire Line
	7700 3500 7700 3700
Connection ~ 7700 3500
Wire Wire Line
	7100 3700 7100 3500
Connection ~ 7100 3500
Wire Wire Line
	6650 3000 6650 3700
Connection ~ 6650 3500
Wire Wire Line
	6500 5200 8600 5200
Wire Wire Line
	7700 5000 7700 5200
Connection ~ 7700 5200
Wire Wire Line
	7100 5000 7100 5200
Connection ~ 7100 5200
Wire Wire Line
	6650 5000 6650 5600
Connection ~ 6650 5200
Wire Wire Line
	3700 4400 3700 4450
Connection ~ 6100 4400
Wire Wire Line
	4800 4100 4800 4600
Connection ~ 4800 4400
Wire Wire Line
	5350 4100 5350 4600
Connection ~ 5350 4400
Wire Wire Line
	6650 4100 6650 4600
Connection ~ 6650 4400
Wire Wire Line
	7100 4100 7100 4600
Connection ~ 7100 4400
Wire Wire Line
	7700 4100 7700 4600
Connection ~ 7700 4400
Wire Wire Line
	6650 5600 6300 5600
Wire Wire Line
	6300 3000 6650 3000
$Comp
L GND #PWR01
U 1 1 58336698
P 8200 4600
F 0 "#PWR01" H 8200 4600 30  0001 C CNN
F 1 "GND" H 8200 4530 30  0001 C CNN
F 2 "" H 8200 4600 60  0000 C CNN
F 3 "" H 8200 4600 60  0000 C CNN
	1    8200 4600
	1    0    0    -1  
$EndComp
Wire Wire Line
	8200 4400 8200 4600
Connection ~ 8200 4400
$Sheet
S 2000 850  1700 1100
U 5835A062
F0 "Sumador" 50
F1 "Sumador.sch" 50
$EndSheet
Text GLabel 8600 3500 2    60   Input ~ 0
+9v
Text GLabel 8600 5200 2    60   Input ~ 0
-9v
Wire Wire Line
	3700 4400 8200 4400
Wire Wire Line
	4200 3500 5700 3500
$Comp
L 7805 U1
U 1 1 5835D286
P 6100 3550
F 0 "U1" H 6250 3354 60  0000 C CNN
F 1 "7905" H 6100 3750 60  0000 C CNN
F 2 "" H 6100 3550 60  0000 C CNN
F 3 "" H 6100 3550 60  0000 C CNN
	1    6100 3550
	1    0    0    -1  
$EndComp
$Comp
L 7905 U2
U 1 1 5835D2CA
P 6100 5150
F 0 "U2" H 6250 4955 60  0000 C CNN
F 1 "7909" H 6100 5350 60  0000 C CNN
F 2 "" H 6100 5150 60  0000 C CNN
F 3 "" H 6100 5150 60  0000 C CNN
	1    6100 5150
	1    0    0    1   
$EndComp
$EndSCHEMATC
