EESchema Schematic File Version 2
LIBS:power
LIBS:device
LIBS:transistors
LIBS:conn
LIBS:linear
LIBS:regul
LIBS:74xx
LIBS:cmos4000
LIBS:adc-dac
LIBS:memory
LIBS:xilinx
LIBS:special
LIBS:microcontrollers
LIBS:dsp
LIBS:microchip
LIBS:analog_switches
LIBS:motorola
LIBS:texas
LIBS:intel
LIBS:audio
LIBS:interface
LIBS:digital-audio
LIBS:philips
LIBS:display
LIBS:cypress
LIBS:siliconi
LIBS:opto
LIBS:atmel
LIBS:contrib
LIBS:valves
LIBS:Fuente_partida_9v-cache
EELAYER 27 0
EELAYER END
$Descr A4 11693 8268
encoding utf-8
Sheet 2 2
Title "Amplificador de instrumentacion"
Date "23 nov 2016"
Rev ""
Comp ""
Comment1 ""
Comment2 ""
Comment3 ""
Comment4 ""
$EndDescr
$Comp
L R R1
U 1 1 5835A0EC
P 1400 3200
F 0 "R1" V 1480 3200 40  0000 C CNN
F 1 "560" V 1407 3201 40  0000 C CNN
F 2 "~" V 1330 3200 30  0000 C CNN
F 3 "~" H 1400 3200 30  0000 C CNN
	1    1400 3200
	1    0    0    -1  
$EndComp
$Comp
L R R2
U 1 1 5835A0FB
P 1400 4000
F 0 "R2" V 1480 4000 40  0000 C CNN
F 1 "560" V 1407 4001 40  0000 C CNN
F 2 "~" V 1330 4000 30  0000 C CNN
F 3 "~" H 1400 4000 30  0000 C CNN
	1    1400 4000
	1    0    0    -1  
$EndComp
$Comp
L R R3
U 1 1 5835A10A
P 2200 2700
F 0 "R3" V 2280 2700 40  0000 C CNN
F 1 "100K" V 2207 2701 40  0000 C CNN
F 2 "~" V 2130 2700 30  0000 C CNN
F 3 "~" H 2200 2700 30  0000 C CNN
	1    2200 2700
	0    -1   -1   0   
$EndComp
$Comp
L R R4
U 1 1 5835A119
P 2200 4600
F 0 "R4" V 2280 4600 40  0000 C CNN
F 1 "100K" V 2207 4601 40  0000 C CNN
F 2 "~" V 2130 4600 30  0000 C CNN
F 3 "~" H 2200 4600 30  0000 C CNN
	1    2200 4600
	0    -1   -1   0   
$EndComp
$Comp
L R R5
U 1 1 5835A128
P 3250 1800
F 0 "R5" V 3330 1800 40  0000 C CNN
F 1 "100K" V 3257 1801 40  0000 C CNN
F 2 "~" V 3180 1800 30  0000 C CNN
F 3 "~" H 3250 1800 30  0000 C CNN
	1    3250 1800
	0    -1   -1   0   
$EndComp
$Comp
L R R6
U 1 1 5835A137
P 3250 4600
F 0 "R6" V 3330 4600 40  0000 C CNN
F 1 "100K" V 3257 4601 40  0000 C CNN
F 2 "~" V 3180 4600 30  0000 C CNN
F 3 "~" H 3250 4600 30  0000 C CNN
	1    3250 4600
	0    -1   -1   0   
$EndComp
$Comp
L R R7
U 1 1 5835A146
P 4050 1800
F 0 "R7" V 4130 1800 40  0000 C CNN
F 1 "100K" V 4057 1801 40  0000 C CNN
F 2 "~" V 3980 1800 30  0000 C CNN
F 3 "~" H 4050 1800 30  0000 C CNN
	1    4050 1800
	0    -1   -1   0   
$EndComp
$Comp
L R R8
U 1 1 5835A155
P 4050 4600
F 0 "R8" V 4130 4600 40  0000 C CNN
F 1 "100K" V 4057 4601 40  0000 C CNN
F 2 "~" V 3980 4600 30  0000 C CNN
F 3 "~" H 4050 4600 30  0000 C CNN
	1    4050 4600
	0    -1   -1   0   
$EndComp
$Comp
L POT RV1
U 1 1 5835A164
P 2800 1100
F 0 "RV1" H 2800 1000 50  0000 C CNN
F 1 "100K" H 2800 1100 50  0000 C CNN
F 2 "~" H 2800 1100 60  0000 C CNN
F 3 "~" H 2800 1100 60  0000 C CNN
	1    2800 1100
	0    -1   -1   0   
$EndComp
$Comp
L POT RV2
U 1 1 5835A173
P 2800 6100
F 0 "RV2" H 2800 6000 50  0000 C CNN
F 1 "100K" H 2800 6100 50  0000 C CNN
F 2 "~" H 2800 6100 60  0000 C CNN
F 3 "~" H 2800 6100 60  0000 C CNN
	1    2800 6100
	0    -1   -1   0   
$EndComp
$Comp
L TL081 U3
U 1 1 5835A229
P 2150 1800
F 0 "U3" H 2300 2100 70  0000 C CNN
F 1 "TL081" H 2300 2000 70  0000 C CNN
F 2 "" H 2150 1800 60  0000 C CNN
F 3 "" H 2150 1800 60  0000 C CNN
	1    2150 1800
	1    0    0    -1  
$EndComp
$Comp
L TL081 U4
U 1 1 5835A238
P 2150 5400
F 0 "U4" H 2300 5700 70  0000 C CNN
F 1 "TL081" H 2300 5600 70  0000 C CNN
F 2 "" H 2150 5400 60  0000 C CNN
F 3 "" H 2150 5400 60  0000 C CNN
	1    2150 5400
	1    0    0    -1  
$EndComp
$Comp
L TL081 U5
U 1 1 5835A247
P 4400 3200
F 0 "U5" H 4550 3500 70  0000 C CNN
F 1 "TL081" H 4550 3400 70  0000 C CNN
F 2 "" H 4400 3200 60  0000 C CNN
F 3 "" H 4400 3200 60  0000 C CNN
	1    4400 3200
	1    0    0    -1  
$EndComp
Wire Wire Line
	1650 1900 1400 1900
Wire Wire Line
	1400 3450 1400 3750
Wire Wire Line
	1400 1900 1400 2950
Wire Wire Line
	1400 4250 1400 5500
Wire Wire Line
	1400 5500 1650 5500
Wire Wire Line
	1950 2700 1400 2700
Connection ~ 1400 2700
Wire Wire Line
	2450 2700 2850 2700
Wire Wire Line
	2850 2700 2850 1800
Wire Wire Line
	2650 1800 3000 1800
Wire Wire Line
	1950 4600 1400 4600
Connection ~ 1400 4600
Wire Wire Line
	2450 4600 3000 4600
Wire Wire Line
	2650 5400 2850 5400
Wire Wire Line
	2850 5400 2850 4600
Connection ~ 2850 1800
Wire Wire Line
	3500 1800 3800 1800
Wire Wire Line
	3650 1800 3650 3100
Wire Wire Line
	3650 3100 3900 3100
Connection ~ 3650 1800
Connection ~ 2850 4600
Wire Wire Line
	3500 4600 3800 4600
Wire Wire Line
	4300 4600 5000 4600
Wire Wire Line
	5000 4600 5000 3200
Wire Wire Line
	4900 3200 5300 3200
Wire Wire Line
	3650 4600 3650 3300
Wire Wire Line
	3650 3300 3900 3300
Connection ~ 3650 4600
Wire Wire Line
	2800 1350 2800 2200
Wire Wire Line
	2800 2200 2150 2200
Wire Wire Line
	2800 750  2800 850 
Wire Wire Line
	2800 750  2150 750 
Wire Wire Line
	2150 750  2150 1400
Wire Wire Line
	2800 5850 2800 5000
Wire Wire Line
	2800 5000 2150 5000
Wire Wire Line
	2800 6350 2150 6350
Wire Wire Line
	2150 6350 2150 5800
Text GLabel 2050 1300 1    60   Input ~ 0
+9v
Wire Wire Line
	2050 1300 2050 1400
Text GLabel 1900 4850 0    60   Input ~ 0
+9v
Text GLabel 1950 5950 0    60   Input ~ 0
-9v
Text GLabel 1950 2350 0    60   Input ~ 0
-9v
Wire Wire Line
	1900 4850 2050 4850
Wire Wire Line
	2050 4850 2050 5000
Wire Wire Line
	1950 2350 2050 2350
Wire Wire Line
	2050 2350 2050 2200
Wire Wire Line
	1950 5950 2050 5950
Wire Wire Line
	2050 5950 2050 5800
Text GLabel 2500 6100 0    60   Input ~ 0
-9v
Text GLabel 2500 1100 0    60   Input ~ 0
-9v
Wire Wire Line
	2500 1100 2650 1100
Wire Wire Line
	2500 6100 2650 6100
$Comp
L CONN_2 P2
U 1 1 5835A7BF
P 750 3700
F 0 "P2" V 700 3700 40  0000 C CNN
F 1 "CONN_2" V 800 3700 40  0000 C CNN
F 2 "" H 750 3700 60  0000 C CNN
F 3 "" H 750 3700 60  0000 C CNN
	1    750  3700
	-1   0    0    1   
$EndComp
Wire Wire Line
	1100 3600 1100 1700
Wire Wire Line
	1100 1700 1650 1700
Wire Wire Line
	1100 3800 1100 5300
Wire Wire Line
	1100 5300 1650 5300
Text GLabel 4300 2700 1    60   Input ~ 0
+9v
Text GLabel 4300 3800 3    60   Input ~ 0
-9v
Wire Wire Line
	4300 3800 4300 3600
Wire Wire Line
	4300 2700 4300 2800
NoConn ~ 4400 2800
NoConn ~ 4400 3600
$Comp
L TL081 U6
U 1 1 5835AFB5
P 7550 3300
F 0 "U6" H 7700 3600 70  0000 C CNN
F 1 "TL081" H 7700 3500 70  0000 C CNN
F 2 "" H 7550 3300 60  0000 C CNN
F 3 "" H 7550 3300 60  0000 C CNN
	1    7550 3300
	1    0    0    -1  
$EndComp
$Comp
L R R9
U 1 1 5835B0B3
P 5550 3200
F 0 "R9" V 5630 3200 40  0000 C CNN
F 1 "100K" V 5557 3201 40  0000 C CNN
F 2 "~" V 5480 3200 30  0000 C CNN
F 3 "~" H 5550 3200 30  0000 C CNN
	1    5550 3200
	0    -1   -1   0   
$EndComp
$Comp
L R R11
U 1 1 5835B0C2
P 6300 3600
F 0 "R11" V 6380 3600 40  0000 C CNN
F 1 "100K" V 6307 3601 40  0000 C CNN
F 2 "~" V 6230 3600 30  0000 C CNN
F 3 "~" H 6300 3600 30  0000 C CNN
	1    6300 3600
	1    0    0    -1  
$EndComp
$Comp
L R R10
U 1 1 5835B0D1
P 6000 4250
F 0 "R10" V 6080 4250 40  0000 C CNN
F 1 "6K8" V 6007 4251 40  0000 C CNN
F 2 "~" V 5930 4250 30  0000 C CNN
F 3 "~" H 6000 4250 30  0000 C CNN
	1    6000 4250
	1    0    0    -1  
$EndComp
$Comp
L R R12
U 1 1 5835B0E0
P 6500 4700
F 0 "R12" V 6580 4700 40  0000 C CNN
F 1 "1K5" V 6507 4701 40  0000 C CNN
F 2 "~" V 6430 4700 30  0000 C CNN
F 3 "~" H 6500 4700 30  0000 C CNN
	1    6500 4700
	1    0    0    -1  
$EndComp
$Comp
L R R13
U 1 1 5835B0EF
P 7000 4700
F 0 "R13" V 7080 4700 40  0000 C CNN
F 1 "100K" V 7007 4701 40  0000 C CNN
F 2 "~" V 6930 4700 30  0000 C CNN
F 3 "~" H 7000 4700 30  0000 C CNN
	1    7000 4700
	1    0    0    -1  
$EndComp
$Comp
L R R14
U 1 1 5835B0FE
P 7500 4300
F 0 "R14" V 7580 4300 40  0000 C CNN
F 1 "100K" V 7507 4301 40  0000 C CNN
F 2 "~" V 7430 4300 30  0000 C CNN
F 3 "~" H 7500 4300 30  0000 C CNN
	1    7500 4300
	0    -1   -1   0   
$EndComp
Connection ~ 5000 3200
Wire Wire Line
	5800 3200 7050 3200
Wire Wire Line
	6300 3350 6300 3200
Connection ~ 6300 3200
Wire Wire Line
	7050 3400 7000 3400
Wire Wire Line
	7000 3400 7000 4450
Wire Wire Line
	7000 4300 7250 4300
Connection ~ 7000 4300
Wire Wire Line
	7750 4300 8300 4300
Wire Wire Line
	8300 4300 8300 3300
Wire Wire Line
	8050 3300 8950 3300
Wire Wire Line
	6500 4450 6500 3900
Wire Wire Line
	6500 3900 6000 3900
Wire Wire Line
	6000 3900 6000 4000
Wire Wire Line
	6300 3850 6300 3900
Connection ~ 6300 3900
Wire Wire Line
	6500 4950 6500 5200
Wire Wire Line
	6500 5200 7000 5200
Wire Wire Line
	7000 5200 7000 4950
$Comp
L GND #PWR02
U 1 1 5835B3A4
P 6750 5350
F 0 "#PWR02" H 6750 5350 30  0001 C CNN
F 1 "GND" H 6750 5280 30  0001 C CNN
F 2 "" H 6750 5350 60  0000 C CNN
F 3 "" H 6750 5350 60  0000 C CNN
	1    6750 5350
	1    0    0    -1  
$EndComp
Wire Wire Line
	6750 5350 6750 5200
Connection ~ 6750 5200
Text GLabel 7450 2750 1    60   Input ~ 0
+9v
Text GLabel 5800 4600 0    60   Input ~ 0
+9v
Text GLabel 7450 3900 3    60   Input ~ 0
-9v
Wire Wire Line
	5800 4600 6000 4600
Wire Wire Line
	6000 4600 6000 4500
Wire Wire Line
	7450 2750 7450 2900
Wire Wire Line
	7450 3900 7450 3700
NoConn ~ 7550 3700
NoConn ~ 7550 2900
$Comp
L CONN_2 P3
U 1 1 5835B504
P 9300 3400
F 0 "P3" V 9250 3400 40  0000 C CNN
F 1 "CONN_2" V 9350 3400 40  0000 C CNN
F 2 "" H 9300 3400 60  0000 C CNN
F 3 "" H 9300 3400 60  0000 C CNN
	1    9300 3400
	1    0    0    -1  
$EndComp
Connection ~ 8300 3300
$Comp
L GND #PWR03
U 1 1 5835B5CC
P 4600 1800
F 0 "#PWR03" H 4600 1800 30  0001 C CNN
F 1 "GND" H 4600 1730 30  0001 C CNN
F 2 "" H 4600 1800 60  0000 C CNN
F 3 "" H 4600 1800 60  0000 C CNN
	1    4600 1800
	0    -1   -1   0   
$EndComp
Wire Wire Line
	4600 1800 4300 1800
$Comp
L GND #PWR04
U 1 1 5835B62D
P 8650 3900
F 0 "#PWR04" H 8650 3900 30  0001 C CNN
F 1 "GND" H 8650 3830 30  0001 C CNN
F 2 "" H 8650 3900 60  0000 C CNN
F 3 "" H 8650 3900 60  0000 C CNN
	1    8650 3900
	1    0    0    -1  
$EndComp
$Comp
L ZENER D7
U 1 1 5835BFD8
P 8650 3500
F 0 "D7" H 8650 3600 50  0000 C CNN
F 1 "1N5838A" H 8650 3400 40  0000 C CNN
F 2 "~" H 8650 3500 60  0000 C CNN
F 3 "~" H 8650 3500 60  0000 C CNN
	1    8650 3500
	0    -1   -1   0   
$EndComp
Wire Wire Line
	8650 3900 8650 3700
Wire Wire Line
	8650 3800 8850 3800
Wire Wire Line
	8850 3800 8850 3500
Wire Wire Line
	8850 3500 8950 3500
Connection ~ 8650 3800
Connection ~ 8650 3300
$EndSCHEMATC
