(export (version D)
  (design
    (source "/home/mariano/Documentos/CIII/SHIELD FRDM-kl46z_V.2/Proyecto Final.sch")
    (date "mié 24 ago 2016 08:55:27 ART")
    (tool "eeschema (22-Jun-2014 BZR 4027)-stable"))
  (components
    (comp (ref P6)
      (value CONN_8X2)
      (libsource (lib conn) (part CONN_8X2))
      (sheetpath (names /) (tstamps /))
      (tstamp 54503BC7))
    (comp (ref P8)
      (value CONN_8X2)
      (libsource (lib conn) (part CONN_8X2))
      (sheetpath (names /) (tstamps /))
      (tstamp 54503BD6))
    (comp (ref P7)
      (value CONN_6X2)
      (libsource (lib conn) (part CONN_6X2))
      (sheetpath (names /) (tstamps /))
      (tstamp 54503BF4))
    (comp (ref P9)
      (value CONN_10X2)
      (libsource (lib conn) (part CONN_10X2))
      (sheetpath (names /) (tstamps /))
      (tstamp 54503BE5))
    (comp (ref C2)
      (value .33uf)
      (libsource (lib device) (part C))
      (sheetpath (names /) (tstamps /))
      (tstamp 57A0CBE3))
    (comp (ref C1)
      (value 3300uf)
      (libsource (lib device) (part CAPAPOL))
      (sheetpath (names /) (tstamps /))
      (tstamp 57A0CBF2))
    (comp (ref D1)
      (value DIODE)
      (libsource (lib device) (part DIODE))
      (sheetpath (names /) (tstamps /))
      (tstamp 57A0CC01))
    (comp (ref U1)
      (value 7805)
      (libsource (lib regul) (part 7805))
      (sheetpath (names /) (tstamps /))
      (tstamp 57A0CC10))
    (comp (ref P1)
      (value CONN_2)
      (libsource (lib conn) (part CONN_2))
      (sheetpath (names /) (tstamps /))
      (tstamp 57A0CC1F))
    (comp (ref D2)
      (value DIODE)
      (libsource (lib device) (part DIODE))
      (sheetpath (names /) (tstamps /))
      (tstamp 57A0CC4C))
    (comp (ref D4)
      (value DIODE)
      (libsource (lib device) (part DIODE))
      (sheetpath (names /) (tstamps /))
      (tstamp 57A0CC5B))
    (comp (ref D5)
      (value DIODE)
      (libsource (lib device) (part DIODE))
      (sheetpath (names /) (tstamps /))
      (tstamp 57A0CC6A))
    (comp (ref C3)
      (value .1uf)
      (libsource (lib device) (part C))
      (sheetpath (names /) (tstamps /))
      (tstamp 57A0CD97))
    (comp (ref J3)
      (value ASC172)
      (libsource (lib "Proyecto Final-cache") (part ASC172))
      (sheetpath (names /) (tstamps /))
      (tstamp 57A0CE8D))
    (comp (ref J2)
      (value LM35)
      (libsource (lib "Proyecto Final-cache") (part LM35))
      (sheetpath (names /) (tstamps /))
      (tstamp 57A0CED1))
    (comp (ref R1)
      (value 3.3M)
      (libsource (lib device) (part R))
      (sheetpath (names /) (tstamps /))
      (tstamp 57A0D01B))
    (comp (ref R3)
      (value 3.3M)
      (libsource (lib device) (part R))
      (sheetpath (names /) (tstamps /))
      (tstamp 57A0D02A))
    (comp (ref D3)
      (value DIODE)
      (libsource (lib device) (part DIODE))
      (sheetpath (names /) (tstamps /))
      (tstamp 57A0D200))
    (comp (ref J1)
      (value HX711)
      (libsource (lib "Proyecto Final-cache") (part HX711))
      (sheetpath (names /) (tstamps /))
      (tstamp 57A48BAF))
    (comp (ref C4)
      (value 100nf)
      (libsource (lib device) (part C))
      (sheetpath (names /) (tstamps /))
      (tstamp 57A48D09))
    (comp (ref C5)
      (value 100nf)
      (libsource (lib device) (part C))
      (sheetpath (names /) (tstamps /))
      (tstamp 57A48D18))
    (comp (ref R7)
      (value 10k)
      (libsource (lib device) (part R))
      (sheetpath (names /) (tstamps /))
      (tstamp 57A48F1D))
    (comp (ref J4)
      (value INFRARROJO)
      (libsource (lib "Proyecto Final-cache") (part INFRARROJO))
      (sheetpath (names /) (tstamps /))
      (tstamp 57A61043))
    (comp (ref R8)
      (value R)
      (libsource (lib device) (part R))
      (sheetpath (names /) (tstamps /))
      (tstamp 57A61ACA))
    (comp (ref R5)
      (value R)
      (libsource (lib device) (part R))
      (sheetpath (names /) (tstamps /))
      (tstamp 57A61AD9))
    (comp (ref P2)
      (value CONN_2)
      (libsource (lib conn) (part CONN_2))
      (sheetpath (names /) (tstamps /))
      (tstamp 57A6243C))
    (comp (ref J5)
      (value HX711)
      (libsource (lib "Proyecto Final-cache") (part HX711))
      (sheetpath (names /) (tstamps /))
      (tstamp 57BC2F87))
    (comp (ref IC1)
      (value 4N25)
      (footprint DIP6)
      (libsource (lib opto) (part 4N25))
      (sheetpath (names /) (tstamps /))
      (tstamp 57BC36AE))
    (comp (ref R2)
      (value R)
      (libsource (lib device) (part R))
      (sheetpath (names /) (tstamps /))
      (tstamp 57BC36D3))
    (comp (ref K1)
      (value CONN_3)
      (libsource (lib conn) (part CONN_3))
      (sheetpath (names /) (tstamps /))
      (tstamp 57BC3880))
    (comp (ref R4)
      (value R)
      (libsource (lib device) (part R))
      (sheetpath (names /) (tstamps /))
      (tstamp 57BC38B2))
    (comp (ref U2)
      (value LM358N)
      (libsource (lib linear) (part LM358N))
      (sheetpath (names /) (tstamps /))
      (tstamp 57BC69AC))
    (comp (ref R6)
      (value R)
      (libsource (lib device) (part R))
      (sheetpath (names /) (tstamps /))
      (tstamp 57BC6B92))
    (comp (ref RV1)
      (value POT)
      (libsource (lib device) (part POT))
      (sheetpath (names /) (tstamps /))
      (tstamp 57BC6BC4)))
  (libparts
    (libpart (lib device) (part C)
      (description "Condensateur non polarise")
      (footprints
        (fp SM*)
        (fp C?)
        (fp C1-1))
      (fields
        (field (name Reference) C)
        (field (name Value) C)
        (field (name Footprint) ~)
        (field (name Datasheet) ~))
      (pins
        (pin (num 1) (name ~) (type passive))
        (pin (num 2) (name ~) (type passive))))
    (libpart (lib device) (part CP)
      (description "Condensateur polarise")
      (footprints
        (fp CP*)
        (fp SM*))
      (fields
        (field (name Reference) C)
        (field (name Value) CP)
        (field (name Footprint) ~)
        (field (name Datasheet) ~))
      (pins
        (pin (num 1) (name ~) (type passive))
        (pin (num 2) (name ~) (type passive))))
    (libpart (lib device) (part DIODE)
      (description "Diode simple")
      (footprints
        (fp D?)
        (fp S*))
      (fields
        (field (name Reference) D)
        (field (name Value) DIODE)
        (field (name Footprint) ~)
        (field (name Datasheet) ~))
      (pins
        (pin (num 1) (name A) (type passive))
        (pin (num 2) (name K) (type passive))))
    (libpart (lib device) (part POT)
      (description Potentionmetre)
      (fields
        (field (name Reference) RV)
        (field (name Value) POT)
        (field (name Footprint) ~)
        (field (name Datasheet) ~))
      (pins
        (pin (num 1) (name 1) (type passive))
        (pin (num 2) (name 2) (type passive))
        (pin (num 3) (name 3) (type passive))))
    (libpart (lib device) (part R)
      (description Resistance)
      (footprints
        (fp R?)
        (fp SM0603)
        (fp SM0805)
        (fp R?-*)
        (fp SM1206))
      (fields
        (field (name Reference) R)
        (field (name Value) R)
        (field (name Footprint) ~)
        (field (name Datasheet) ~))
      (pins
        (pin (num 1) (name ~) (type passive))
        (pin (num 2) (name ~) (type passive))))
    (libpart (lib conn) (part CONN_10X2)
      (description "symbole general de connecteur")
      (fields
        (field (name Reference) P)
        (field (name Value) CONN_10X2))
      (pins
        (pin (num 1) (name P1) (type passive))
        (pin (num 2) (name P2) (type passive))
        (pin (num 3) (name P3) (type passive))
        (pin (num 4) (name P4) (type passive))
        (pin (num 5) (name P5) (type passive))
        (pin (num 6) (name P6) (type passive))
        (pin (num 7) (name P7) (type passive))
        (pin (num 8) (name P8) (type passive))
        (pin (num 9) (name P9) (type passive))
        (pin (num 10) (name P10) (type passive))
        (pin (num 11) (name P11) (type passive))
        (pin (num 12) (name P12) (type passive))
        (pin (num 13) (name P13) (type passive))
        (pin (num 14) (name P14) (type passive))
        (pin (num 15) (name P15) (type passive))
        (pin (num 16) (name P16) (type passive))
        (pin (num 17) (name P17) (type passive))
        (pin (num 18) (name P18) (type passive))
        (pin (num 19) (name P19) (type passive))
        (pin (num 20) (name P20) (type passive))))
    (libpart (lib conn) (part CONN_2)
      (description "Symbole general de connecteur")
      (fields
        (field (name Reference) P)
        (field (name Value) CONN_2))
      (pins
        (pin (num 1) (name P1) (type passive))
        (pin (num 2) (name PM) (type passive))))
    (libpart (lib conn) (part CONN_3)
      (description "Symbole general de connecteur")
      (fields
        (field (name Reference) K)
        (field (name Value) CONN_3))
      (pins
        (pin (num 1) (name P1) (type passive))
        (pin (num 2) (name PM) (type passive))
        (pin (num 3) (name P3) (type passive))))
    (libpart (lib conn) (part CONN_6X2)
      (description "Symbole general de connecteur")
      (fields
        (field (name Reference) P)
        (field (name Value) CONN_6X2))
      (pins
        (pin (num 1) (name P1) (type passive))
        (pin (num 2) (name P2) (type passive))
        (pin (num 3) (name P3) (type passive))
        (pin (num 4) (name P4) (type passive))
        (pin (num 5) (name P5) (type passive))
        (pin (num 6) (name P6) (type passive))
        (pin (num 7) (name P7) (type passive))
        (pin (num 8) (name P8) (type passive))
        (pin (num 9) (name 9) (type passive))
        (pin (num 10) (name 10) (type passive))
        (pin (num 11) (name 11) (type passive))
        (pin (num 12) (name 12) (type passive))))
    (libpart (lib conn) (part CONN_8X2)
      (description "ymbole general de connecteur")
      (fields
        (field (name Reference) P)
        (field (name Value) CONN_8X2))
      (pins
        (pin (num 1) (name ~) (type passive))
        (pin (num 2) (name ~) (type passive))
        (pin (num 3) (name ~) (type passive))
        (pin (num 4) (name ~) (type passive))
        (pin (num 5) (name ~) (type passive))
        (pin (num 6) (name ~) (type passive))
        (pin (num 7) (name ~) (type passive))
        (pin (num 8) (name ~) (type passive))
        (pin (num 9) (name ~) (type passive))
        (pin (num 10) (name ~) (type passive))
        (pin (num 11) (name ~) (type passive))
        (pin (num 12) (name ~) (type passive))
        (pin (num 13) (name ~) (type passive))
        (pin (num 14) (name ~) (type passive))
        (pin (num 15) (name ~) (type passive))
        (pin (num 16) (name ~) (type passive))))
    (libpart (lib linear) (part LM358)
      (description "Dual Op amp (low power)")
      (docs ns/lm158.pdf)
      (fields
        (field (name Reference) U)
        (field (name Value) LM358))
      (pins
        (pin (num 1) (name ~) (type output))
        (pin (num 2) (name -) (type input))
        (pin (num 3) (name +) (type input))
        (pin (num 4) (name V-) (type power_in))
        (pin (num 5) (name +) (type input))
        (pin (num 6) (name -) (type input))
        (pin (num 7) (name ~) (type output))
        (pin (num 8) (name V+) (type power_in))))
    (libpart (lib regul) (part 7805)
      (description "Linear Regulator +5V")
      (docs regulator\lm78xx.pdf)
      (fields
        (field (name Reference) U)
        (field (name Value) 7805))
      (pins
        (pin (num GND) (name GND) (type input))
        (pin (num VI) (name VI) (type input))
        (pin (num VO) (name VO) (type power_out))))
    (libpart (lib opto) (part 4N25)
      (description "4N25, DIP6, DC Optocoupler Base Connected, Vce 30V, CTR 20%, Viso 2500V")
      (fields
        (field (name Reference) IC)
        (field (name Value) 4N25)
        (field (name Footprint) DIP6)
        (field (name Datasheet) ~))
      (pins
        (pin (num 1) (name ~) (type passive))
        (pin (num 2) (name ~) (type passive))
        (pin (num 4) (name ~) (type passive))
        (pin (num 5) (name ~) (type passive))
        (pin (num 6) (name ~) (type passive))))
    (libpart (lib "Proyecto Final-cache") (part ASC172)
      (fields
        (field (name Reference) J)
        (field (name Value) ASC172)
        (field (name Footprint) ~)
        (field (name Datasheet) ~))
      (pins
        (pin (num 1) (name GND) (type power_in))
        (pin (num 2) (name OUT) (type output))
        (pin (num 3) (name VCC) (type power_in))))
    (libpart (lib "Proyecto Final-cache") (part HX711)
      (fields
        (field (name Reference) J)
        (field (name Value) HX711)
        (field (name Footprint) ~)
        (field (name Datasheet) ~))
      (pins
        (pin (num 1) (name VCC) (type power_in))
        (pin (num 2) (name SCK) (type input))
        (pin (num 3) (name DT) (type output))
        (pin (num 4) (name GND) (type power_in))))
    (libpart (lib "Proyecto Final-cache") (part INFRARROJO)
      (fields
        (field (name Reference) J)
        (field (name Value) INFRARROJO)
        (field (name Footprint) ~)
        (field (name Datasheet) ~))
      (pins
        (pin (num 1) (name VCC) (type power_out))
        (pin (num 2) (name VOUT) (type output))
        (pin (num 3) (name GND) (type power_out))))
    (libpart (lib "Proyecto Final-cache") (part LM35)
      (fields
        (field (name Reference) J)
        (field (name Value) LM35)
        (field (name Footprint) ~)
        (field (name Datasheet) ~))
      (pins
        (pin (num 1) (name VCC) (type power_in))
        (pin (num 2) (name OUT) (type output))
        (pin (num 3) (name GND) (type power_in)))))
  (libraries
    (library (logical conn)
      (uri /usr/share/kicad/library/conn.lib))
    (library (logical device)
      (uri /usr/share/kicad/library/device.lib))
    (library (logical linear)
      (uri /usr/share/kicad/library/linear.lib))
    (library (logical regul)
      (uri /usr/share/kicad/library/regul.lib))
    (library (logical "Proyecto Final-cache")
      (uri "/home/mariano/Documentos/CIII/SHIELD FRDM-kl46z_V.2/Proyecto Final-cache.lib"))
    (library (logical opto)
      (uri /usr/share/kicad/library/opto.lib)))
  (nets
    (net (code 1) (name ASC172)
      (node (ref P7) (pin 8))
      (node (ref R3) (pin 1))
      (node (ref R1) (pin 2))
      (node (ref C5) (pin 2)))
    (net (code 2) (name LM35)
      (node (ref P7) (pin 10))
      (node (ref C4) (pin 2))
      (node (ref J2) (pin 2)))
    (net (code 3) (name +3.3V)
      (node (ref R6) (pin 1))
      (node (ref U2) (pin 8))
      (node (ref J4) (pin 1))
      (node (ref P8) (pin 10)))
    (net (code 4) (name IR)
      (node (ref U2) (pin 2))
      (node (ref J4) (pin 2)))
    (net (code 5) (name "")
      (node (ref P2) (pin 2))
      (node (ref R5) (pin 1)))
    (net (code 6) (name SCK_1)
      (node (ref J1) (pin 2))
      (node (ref P9) (pin 19)))
    (net (code 7) (name +5V)
      (node (ref J3) (pin 3))
      (node (ref J2) (pin 1))
      (node (ref J1) (pin 1))
      (node (ref U1) (pin VO))
      (node (ref C3) (pin 1))
      (node (ref D3) (pin 1))
      (node (ref J5) (pin 1)))
    (net (code 8) (name GND)
      (node (ref C3) (pin 2))
      (node (ref P8) (pin 4))
      (node (ref J1) (pin 4))
      (node (ref IC1) (pin 2))
      (node (ref J4) (pin 3))
      (node (ref D1) (pin 1))
      (node (ref C1) (pin 2))
      (node (ref C2) (pin 2))
      (node (ref P9) (pin 13))
      (node (ref C5) (pin 1))
      (node (ref R7) (pin 1))
      (node (ref J2) (pin 3))
      (node (ref J3) (pin 1))
      (node (ref P8) (pin 6))
      (node (ref C4) (pin 1))
      (node (ref U1) (pin GND))
      (node (ref D4) (pin 1))
      (node (ref R8) (pin 2))
      (node (ref R3) (pin 2))
      (node (ref J5) (pin 4))
      (node (ref P2) (pin 1))
      (node (ref U2) (pin 4))
      (node (ref RV1) (pin 3)))
    (net (code 9) (name DT_2)
      (node (ref P9) (pin 9))
      (node (ref J5) (pin 3)))
    (net (code 10) (name SCK_2)
      (node (ref P9) (pin 11))
      (node (ref J5) (pin 2)))
    (net (code 11) (name DT_1)
      (node (ref P9) (pin 17))
      (node (ref J1) (pin 3)))
    (net (code 12) (name TENSION)
      (node (ref R5) (pin 2))
      (node (ref R8) (pin 1))
      (node (ref P7) (pin 2)))
    (net (code 13) (name "")
      (node (ref J3) (pin 2))
      (node (ref R1) (pin 1)))
    (net (code 14) (name "")
      (node (ref P7) (pin 4)))
    (net (code 15) (name PWM)
      (node (ref P8) (pin 15))
      (node (ref R2) (pin 2)))
    (net (code 16) (name "")
      (node (ref P7) (pin 6)))
    (net (code 17) (name "")
      (node (ref P8) (pin 8)))
    (net (code 18) (name "")
      (node (ref IC1) (pin 6)))
    (net (code 19) (name "")
      (node (ref P9) (pin 15)))
    (net (code 20) (name "")
      (node (ref P9) (pin 18)))
    (net (code 21) (name "")
      (node (ref P9) (pin 20)))
    (net (code 22) (name PTB20)
      (node (ref P7) (pin 3))
      (node (ref U2) (pin 1)))
    (net (code 23) (name "")
      (node (ref K1) (pin 3))
      (node (ref R4) (pin 2)))
    (net (code 24) (name "")
      (node (ref RV1) (pin 1))
      (node (ref R6) (pin 2))
      (node (ref RV1) (pin 2))
      (node (ref U2) (pin 3)))
    (net (code 25) (name "")
      (node (ref P7) (pin 12))
      (node (ref R7) (pin 2)))
    (net (code 26) (name "")
      (node (ref K1) (pin 1))
      (node (ref IC1) (pin 5)))
    (net (code 27) (name "")
      (node (ref R4) (pin 1))
      (node (ref K1) (pin 2))
      (node (ref IC1) (pin 4)))
    (net (code 28) (name "")
      (node (ref IC1) (pin 1))
      (node (ref R2) (pin 1)))
    (net (code 29) (name "")
      (node (ref P9) (pin 14)))
    (net (code 30) (name "")
      (node (ref P9) (pin 16)))
    (net (code 31) (name "")
      (node (ref P9) (pin 12)))
    (net (code 32) (name "")
      (node (ref P9) (pin 10)))
    (net (code 33) (name "")
      (node (ref P9) (pin 8)))
    (net (code 34) (name "")
      (node (ref P9) (pin 7)))
    (net (code 35) (name "")
      (node (ref P9) (pin 6)))
    (net (code 36) (name "")
      (node (ref P9) (pin 5)))
    (net (code 37) (name "")
      (node (ref P9) (pin 4)))
    (net (code 39) (name "")
      (node (ref P9) (pin 3)))
    (net (code 40) (name "")
      (node (ref D5) (pin 1))
      (node (ref P1) (pin 1))
      (node (ref D4) (pin 2)))
    (net (code 41) (name "")
      (node (ref C2) (pin 1))
      (node (ref D2) (pin 2))
      (node (ref D5) (pin 2))
      (node (ref D3) (pin 2))
      (node (ref C1) (pin 1))
      (node (ref U1) (pin VI)))
    (net (code 42) (name "")
      (node (ref P6) (pin 12)))
    (net (code 43) (name "")
      (node (ref P8) (pin 7)))
    (net (code 44) (name "")
      (node (ref P8) (pin 5)))
    (net (code 45) (name "")
      (node (ref P8) (pin 3)))
    (net (code 46) (name "")
      (node (ref P8) (pin 2)))
    (net (code 47) (name "")
      (node (ref P8) (pin 1)))
    (net (code 48) (name "")
      (node (ref P6) (pin 16)))
    (net (code 49) (name "")
      (node (ref P6) (pin 15)))
    (net (code 50) (name "")
      (node (ref P6) (pin 14)))
    (net (code 51) (name "")
      (node (ref P6) (pin 13)))
    (net (code 52) (name "")
      (node (ref P6) (pin 11)))
    (net (code 53) (name "")
      (node (ref P6) (pin 10)))
    (net (code 54) (name "")
      (node (ref P6) (pin 9)))
    (net (code 55) (name "")
      (node (ref P6) (pin 8)))
    (net (code 56) (name "")
      (node (ref P6) (pin 7)))
    (net (code 57) (name "")
      (node (ref P6) (pin 6)))
    (net (code 58) (name "")
      (node (ref P6) (pin 5)))
    (net (code 59) (name "")
      (node (ref P6) (pin 4)))
    (net (code 60) (name "")
      (node (ref P6) (pin 3)))
    (net (code 61) (name "")
      (node (ref P6) (pin 2)))
    (net (code 62) (name "")
      (node (ref P9) (pin 2)))
    (net (code 63) (name "")
      (node (ref P9) (pin 1)))
    (net (code 64) (name "")
      (node (ref P7) (pin 11)))
    (net (code 65) (name "")
      (node (ref P7) (pin 9)))
    (net (code 66) (name "")
      (node (ref P7) (pin 7)))
    (net (code 67) (name "")
      (node (ref P7) (pin 5)))
    (net (code 68) (name "")
      (node (ref P7) (pin 1)))
    (net (code 69) (name "")
      (node (ref P8) (pin 16)))
    (net (code 70) (name "")
      (node (ref P8) (pin 14)))
    (net (code 71) (name "")
      (node (ref P8) (pin 13)))
    (net (code 72) (name "")
      (node (ref P8) (pin 12)))
    (net (code 73) (name "")
      (node (ref P8) (pin 11)))
    (net (code 74) (name "")
      (node (ref P8) (pin 9)))
    (net (code 75) (name "")
      (node (ref P1) (pin 2))
      (node (ref D2) (pin 1))
      (node (ref D1) (pin 2)))
    (net (code 77) (name "")
      (node (ref P6) (pin 1)))))