EESchema Schematic File Version 2
LIBS:power
LIBS:device
LIBS:transistors
LIBS:conn
LIBS:linear
LIBS:regul
LIBS:74xx
LIBS:cmos4000
LIBS:adc-dac
LIBS:memory
LIBS:xilinx
LIBS:special
LIBS:microcontrollers
LIBS:dsp
LIBS:microchip
LIBS:analog_switches
LIBS:motorola
LIBS:texas
LIBS:intel
LIBS:audio
LIBS:interface
LIBS:digital-audio
LIBS:philips
LIBS:display
LIBS:cypress
LIBS:siliconi
LIBS:opto
LIBS:atmel
LIBS:contrib
LIBS:valves
LIBS:Proyecto Final-cache
EELAYER 27 0
EELAYER END
$Descr A4 11693 8268
encoding utf-8
Sheet 1 1
Title "SHIELD FDRM-kl46z"
Date "24 aug 2016"
Rev "1"
Comp "UTN-FRC"
Comment1 "Circuito General en Bloques"
Comment2 ""
Comment3 ""
Comment4 ""
$EndDescr
$Comp
L CONN_8X2 P6
U 1 1 54503BC7
P 7900 4000
F 0 "P6" H 7900 4450 60  0000 C CNN
F 1 "CONN_8X2" V 7900 4000 50  0000 C CNN
F 2 "" H 7900 4000 60  0000 C CNN
F 3 "" H 7900 4000 60  0000 C CNN
	1    7900 4000
	-1   0    0    1   
$EndComp
$Comp
L CONN_8X2 P8
U 1 1 54503BD6
P 6550 2850
F 0 "P8" H 6550 3300 60  0000 C CNN
F 1 "CONN_8X2" V 6550 2850 50  0000 C CNN
F 2 "" H 6550 2850 60  0000 C CNN
F 3 "" H 6550 2850 60  0000 C CNN
	1    6550 2850
	-1   0    0    1   
$EndComp
$Comp
L CONN_6X2 P7
U 1 1 54503BF4
P 6550 4100
F 0 "P7" H 6550 4450 60  0000 C CNN
F 1 "CONN_6X2" V 6550 4100 60  0000 C CNN
F 2 "" H 6550 4100 60  0000 C CNN
F 3 "" H 6550 4100 60  0000 C CNN
	1    6550 4100
	-1   0    0    1   
$EndComp
$Comp
L CONN_10X2 P9
U 1 1 54503BE5
P 7900 2800
F 0 "P9" H 7900 3350 60  0000 C CNN
F 1 "CONN_10X2" V 7900 2700 50  0000 C CNN
F 2 "" H 7900 2800 60  0000 C CNN
F 3 "" H 7900 2800 60  0000 C CNN
	1    7900 2800
	-1   0    0    1   
$EndComp
$Comp
L C C2
U 1 1 57A0CBE3
P 3850 1950
F 0 "C2" H 3850 2050 40  0000 L CNN
F 1 ".33uf" H 3856 1865 40  0000 L CNN
F 2 "~" H 3888 1800 30  0000 C CNN
F 3 "~" H 3850 1950 60  0000 C CNN
	1    3850 1950
	1    0    0    -1  
$EndComp
$Comp
L CAPAPOL C1
U 1 1 57A0CBF2
P 3350 1950
F 0 "C1" H 3400 2050 40  0000 L CNN
F 1 "3300uf" H 3400 1850 40  0000 L CNN
F 2 "~" H 3450 1800 30  0000 C CNN
F 3 "~" H 3350 1950 300 0000 C CNN
	1    3350 1950
	1    0    0    -1  
$EndComp
$Comp
L DIODE D1
U 1 1 57A0CC01
P 2050 1200
F 0 "D1" H 2050 1300 40  0000 C CNN
F 1 "DIODE" H 2050 1100 40  0000 C CNN
F 2 "~" H 2050 1200 60  0000 C CNN
F 3 "~" H 2050 1200 60  0000 C CNN
	1    2050 1200
	1    0    0    -1  
$EndComp
$Comp
L 7805 U1
U 1 1 57A0CC10
P 4500 1650
F 0 "U1" H 4650 1454 60  0000 C CNN
F 1 "7805" H 4500 1850 60  0000 C CNN
F 2 "" H 4500 1650 60  0000 C CNN
F 3 "" H 4500 1650 60  0000 C CNN
	1    4500 1650
	1    0    0    -1  
$EndComp
$Comp
L CONN_2 P1
U 1 1 57A0CC1F
P 1100 1500
F 0 "P1" V 1050 1500 40  0000 C CNN
F 1 "CONN_2" V 1150 1500 40  0000 C CNN
F 2 "" H 1100 1500 60  0000 C CNN
F 3 "" H 1100 1500 60  0000 C CNN
	1    1100 1500
	-1   0    0    1   
$EndComp
$Comp
L DIODE D2
U 1 1 57A0CC4C
P 2650 1200
F 0 "D2" H 2650 1300 40  0000 C CNN
F 1 "DIODE" H 2650 1100 40  0000 C CNN
F 2 "~" H 2650 1200 60  0000 C CNN
F 3 "~" H 2650 1200 60  0000 C CNN
	1    2650 1200
	1    0    0    -1  
$EndComp
$Comp
L DIODE D4
U 1 1 57A0CC5B
P 2050 1900
F 0 "D4" H 2050 2000 40  0000 C CNN
F 1 "DIODE" H 2050 1800 40  0000 C CNN
F 2 "~" H 2050 1900 60  0000 C CNN
F 3 "~" H 2050 1900 60  0000 C CNN
	1    2050 1900
	1    0    0    -1  
$EndComp
$Comp
L DIODE D5
U 1 1 57A0CC6A
P 2650 1900
F 0 "D5" H 2650 2000 40  0000 C CNN
F 1 "DIODE" H 2650 1800 40  0000 C CNN
F 2 "~" H 2650 1900 60  0000 C CNN
F 3 "~" H 2650 1900 60  0000 C CNN
	1    2650 1900
	1    0    0    -1  
$EndComp
$Comp
L GND #PWR01
U 1 1 57A0CD62
P 3600 2550
F 0 "#PWR01" H 3600 2550 30  0001 C CNN
F 1 "GND" H 3600 2480 30  0001 C CNN
F 2 "" H 3600 2550 60  0000 C CNN
F 3 "" H 3600 2550 60  0000 C CNN
	1    3600 2550
	1    0    0    -1  
$EndComp
NoConn ~ 1800 2150
$Comp
L C C3
U 1 1 57A0CD97
P 5150 2000
F 0 "C3" H 5150 2100 40  0000 L CNN
F 1 ".1uf" H 5156 1915 40  0000 L CNN
F 2 "~" H 5188 1850 30  0000 C CNN
F 3 "~" H 5150 2000 60  0000 C CNN
	1    5150 2000
	1    0    0    -1  
$EndComp
$Comp
L ASC172 J3
U 1 1 57A0CE8D
P 2900 3000
F 0 "J3" H 2950 2550 60  0000 C CNN
F 1 "ASC172" H 2950 3050 60  0000 C CNN
F 2 "" H 2900 3000 60  0000 C CNN
F 3 "" H 2900 3000 60  0000 C CNN
	1    2900 3000
	1    0    0    -1  
$EndComp
$Comp
L LM35 J2
U 1 1 57A0CED1
P 4850 2950
F 0 "J2" H 4900 2450 60  0000 C CNN
F 1 "LM35" H 4900 2950 60  0000 C CNN
F 2 "" H 4850 2950 60  0000 C CNN
F 3 "" H 4850 2950 60  0000 C CNN
	1    4850 2950
	1    0    0    -1  
$EndComp
Text GLabel 5300 1600 2    60   Input ~ 0
+5V
Text GLabel 2350 3300 0    60   Input ~ 0
+5V
Text GLabel 4300 3100 0    60   Input ~ 0
+5V
$Comp
L GND #PWR02
U 1 1 57A0CF6E
P 2350 3100
F 0 "#PWR02" H 2350 3100 30  0001 C CNN
F 1 "GND" H 2350 3030 30  0001 C CNN
F 2 "" H 2350 3100 60  0000 C CNN
F 3 "" H 2350 3100 60  0000 C CNN
	1    2350 3100
	0    1    1    0   
$EndComp
$Comp
L GND #PWR03
U 1 1 57A0CFC8
P 4250 3300
F 0 "#PWR03" H 4250 3300 30  0001 C CNN
F 1 "GND" H 4250 3230 30  0001 C CNN
F 2 "" H 4250 3300 60  0000 C CNN
F 3 "" H 4250 3300 60  0000 C CNN
	1    4250 3300
	0    1    1    0   
$EndComp
$Comp
L R R1
U 1 1 57A0D01B
P 2400 3650
F 0 "R1" V 2480 3650 40  0000 C CNN
F 1 "3.3M" V 2407 3651 40  0000 C CNN
F 2 "~" V 2330 3650 30  0000 C CNN
F 3 "~" H 2400 3650 30  0000 C CNN
	1    2400 3650
	1    0    0    -1  
$EndComp
$Comp
L R R3
U 1 1 57A0D02A
P 2400 4300
F 0 "R3" V 2480 4300 40  0000 C CNN
F 1 "3.3M" V 2407 4301 40  0000 C CNN
F 2 "~" V 2330 4300 30  0000 C CNN
F 3 "~" H 2400 4300 30  0000 C CNN
	1    2400 4300
	1    0    0    -1  
$EndComp
NoConn ~ 2400 3300
$Comp
L GND #PWR04
U 1 1 57A0D1BF
P 2400 4800
F 0 "#PWR04" H 2400 4800 30  0001 C CNN
F 1 "GND" H 2400 4730 30  0001 C CNN
F 2 "" H 2400 4800 60  0000 C CNN
F 3 "" H 2400 4800 60  0000 C CNN
	1    2400 4800
	1    0    0    -1  
$EndComp
$Comp
L DIODE D3
U 1 1 57A0D200
P 4500 1300
F 0 "D3" H 4500 1400 40  0000 C CNN
F 1 "DIODE" H 4500 1200 40  0000 C CNN
F 2 "~" H 4500 1300 60  0000 C CNN
F 3 "~" H 4500 1300 60  0000 C CNN
	1    4500 1300
	-1   0    0    1   
$EndComp
$Comp
L GND #PWR05
U 1 1 57A489F4
P 9200 2650
F 0 "#PWR05" H 9200 2650 30  0001 C CNN
F 1 "GND" H 9200 2580 30  0001 C CNN
F 2 "" H 9200 2650 60  0000 C CNN
F 3 "" H 9200 2650 60  0000 C CNN
	1    9200 2650
	0    -1   -1   0   
$EndComp
$Comp
L GND #PWR06
U 1 1 57A48A3C
P 6000 3300
F 0 "#PWR06" H 6000 3300 30  0001 C CNN
F 1 "GND" H 6000 3230 30  0001 C CNN
F 2 "" H 6000 3300 60  0000 C CNN
F 3 "" H 6000 3300 60  0000 C CNN
	1    6000 3300
	1    0    0    -1  
$EndComp
NoConn ~ 6150 2500
NoConn ~ 6150 2600
NoConn ~ 6150 2700
NoConn ~ 6150 3200
NoConn ~ 6950 3200
NoConn ~ 6950 3100
NoConn ~ 6950 3000
NoConn ~ 6950 2900
NoConn ~ 6950 2800
NoConn ~ 6950 2700
NoConn ~ 6950 2600
NoConn ~ 6950 3850
NoConn ~ 6950 3950
NoConn ~ 6950 4050
NoConn ~ 6950 4150
NoConn ~ 6950 4350
NoConn ~ 7500 4350
NoConn ~ 7500 4250
NoConn ~ 7500 4150
NoConn ~ 7500 4050
NoConn ~ 7500 3950
NoConn ~ 7500 3850
NoConn ~ 7500 3750
NoConn ~ 8300 4350
NoConn ~ 8300 4250
NoConn ~ 8300 4150
NoConn ~ 8300 4050
NoConn ~ 8300 3950
NoConn ~ 8300 3850
NoConn ~ 8300 3750
NoConn ~ 8300 3650
NoConn ~ 7500 3650
NoConn ~ 7500 3250
NoConn ~ 7500 3150
NoConn ~ 7500 3050
NoConn ~ 7500 2950
NoConn ~ 7500 2850
NoConn ~ 7500 2750
NoConn ~ 7500 2650
NoConn ~ 7500 2550
NoConn ~ 8300 3250
NoConn ~ 8300 3150
NoConn ~ 8300 3050
NoConn ~ 8300 2950
$Comp
L HX711 J1
U 1 1 57A48BAF
P 7300 1400
F 0 "J1" H 7300 850 60  0000 C CNN
F 1 "HX711" H 7300 1350 60  0000 C CNN
F 2 "" H 7300 1400 60  0000 C CNN
F 3 "" H 7300 1400 60  0000 C CNN
	1    7300 1400
	1    0    0    -1  
$EndComp
Text GLabel 6500 1550 0    60   Input ~ 0
+5V
$Comp
L GND #PWR07
U 1 1 57A48BC8
P 6450 1850
F 0 "#PWR07" H 6450 1850 30  0001 C CNN
F 1 "GND" H 6450 1780 30  0001 C CNN
F 2 "" H 6450 1850 60  0000 C CNN
F 3 "" H 6450 1850 60  0000 C CNN
	1    6450 1850
	0    1    1    0   
$EndComp
$Comp
L C C4
U 1 1 57A48D09
P 6550 5150
F 0 "C4" H 6550 5250 40  0000 L CNN
F 1 "100nf" H 6556 5065 40  0000 L CNN
F 2 "~" H 6588 5000 30  0000 C CNN
F 3 "~" H 6550 5150 60  0000 C CNN
	1    6550 5150
	-1   0    0    1   
$EndComp
$Comp
L C C5
U 1 1 57A48D18
P 6250 5150
F 0 "C5" H 6250 5250 40  0000 L CNN
F 1 "100nf" H 6256 5065 40  0000 L CNN
F 2 "~" H 6288 5000 30  0000 C CNN
F 3 "~" H 6250 5150 60  0000 C CNN
	1    6250 5150
	-1   0    0    1   
$EndComp
$Comp
L R R7
U 1 1 57A48F1D
P 5750 3850
F 0 "R7" V 5830 3850 40  0000 C CNN
F 1 "10k" V 5757 3851 40  0000 C CNN
F 2 "~" V 5680 3850 30  0000 C CNN
F 3 "~" H 5750 3850 30  0000 C CNN
	1    5750 3850
	0    -1   -1   0   
$EndComp
$Comp
L INFRARROJO J4
U 1 1 57A61043
P 9500 3300
F 0 "J4" H 9500 2900 60  0000 C CNN
F 1 "INFRARROJO" H 9500 3300 60  0000 C CNN
F 2 "" H 9500 3300 60  0000 C CNN
F 3 "" H 9500 3300 60  0000 C CNN
	1    9500 3300
	1    0    0    -1  
$EndComp
$Comp
L GND #PWR08
U 1 1 57A6113C
P 8900 3900
F 0 "#PWR08" H 8900 3900 30  0001 C CNN
F 1 "GND" H 8900 3830 30  0001 C CNN
F 2 "" H 8900 3900 60  0000 C CNN
F 3 "" H 8900 3900 60  0000 C CNN
	1    8900 3900
	1    0    0    -1  
$EndComp
$Comp
L R R8
U 1 1 57A61ACA
P 4200 6250
F 0 "R8" V 4280 6250 40  0000 C CNN
F 1 "R" V 4207 6251 40  0000 C CNN
F 2 "~" V 4130 6250 30  0000 C CNN
F 3 "~" H 4200 6250 30  0000 C CNN
	1    4200 6250
	1    0    0    -1  
$EndComp
$Comp
L R R5
U 1 1 57A61AD9
P 4200 5650
F 0 "R5" V 4280 5650 40  0000 C CNN
F 1 "R" V 4207 5651 40  0000 C CNN
F 2 "~" V 4130 5650 30  0000 C CNN
F 3 "~" H 4200 5650 30  0000 C CNN
	1    4200 5650
	1    0    0    -1  
$EndComp
Wire Wire Line
	1850 1200 1850 1900
Wire Wire Line
	2250 1200 2450 1200
Wire Wire Line
	2850 1200 2850 1900
Wire Wire Line
	2250 1900 2450 1900
Wire Wire Line
	1450 1400 1450 900 
Wire Wire Line
	1450 900  2350 900 
Wire Wire Line
	2350 900  2350 1200
Connection ~ 2350 1200
Wire Wire Line
	2350 1900 2350 2150
Wire Wire Line
	2350 2150 1450 2150
Wire Wire Line
	1450 2150 1450 1600
Connection ~ 2350 1900
Wire Wire Line
	2850 1600 4100 1600
Connection ~ 2850 1600
Wire Wire Line
	3350 1600 3350 1750
Connection ~ 3350 1600
Wire Wire Line
	3850 1300 3850 1750
Connection ~ 3850 1600
Wire Wire Line
	1850 1500 1800 1500
Wire Wire Line
	1800 1500 1800 2400
Wire Wire Line
	1800 2400 5150 2400
Wire Wire Line
	4500 2400 4500 1900
Connection ~ 1850 1500
Wire Wire Line
	3850 2150 3850 2400
Connection ~ 3850 2400
Wire Wire Line
	3350 2150 3350 2400
Connection ~ 3350 2400
Wire Wire Line
	3600 2400 3600 2550
Connection ~ 3600 2400
Wire Wire Line
	5150 2400 5150 2200
Connection ~ 4500 2400
Wire Wire Line
	5150 1300 5150 1800
Wire Wire Line
	4900 1600 5300 1600
Connection ~ 5150 1600
Wire Wire Line
	4300 3100 4450 3100
Wire Wire Line
	2500 3300 2350 3300
Wire Wire Line
	2500 3100 2350 3100
Wire Wire Line
	4250 3300 4450 3300
Wire Wire Line
	2400 3400 2400 3200
Wire Wire Line
	2400 3200 2500 3200
Wire Wire Line
	2400 3900 2400 4050
Wire Wire Line
	4300 3200 4450 3200
Wire Wire Line
	2400 4550 2400 4800
Wire Wire Line
	4300 1300 3850 1300
Wire Wire Line
	4700 1300 5150 1300
Connection ~ 2400 4000
Wire Wire Line
	8300 2650 9200 2650
Wire Wire Line
	6150 3000 6000 3000
Wire Wire Line
	6000 3000 6000 3300
Wire Wire Line
	6150 3100 6000 3100
Connection ~ 6000 3100
Wire Wire Line
	6850 1550 6500 1550
Wire Wire Line
	6850 1850 6450 1850
Wire Wire Line
	6550 5350 6550 5500
Wire Wire Line
	6250 5350 6250 5500
Wire Wire Line
	9050 3600 8900 3600
Wire Wire Line
	8900 3600 8900 3900
Wire Wire Line
	4200 5900 4200 6000
Connection ~ 4200 5950
Text GLabel 6000 2800 0    60   Input ~ 0
+3.3V
Wire Wire Line
	6150 2800 6000 2800
$Comp
L CONN_2 P2
U 1 1 57A6243C
P 3000 5500
F 0 "P2" V 2950 5500 40  0000 C CNN
F 1 "CONN_2" V 3050 5500 40  0000 C CNN
F 2 "" H 3000 5500 60  0000 C CNN
F 3 "" H 3000 5500 60  0000 C CNN
	1    3000 5500
	-1   0    0    1   
$EndComp
Wire Wire Line
	3350 5600 3650 5600
Wire Wire Line
	3650 5600 3650 6650
Wire Wire Line
	3350 5400 4200 5400
Text GLabel 8900 3300 0    60   Input ~ 0
+3.3V
Wire Wire Line
	8900 3300 9050 3300
Wire Wire Line
	9050 3300 9050 3400
Text GLabel 4300 3200 0    60   Input ~ 0
LM35
Text GLabel 5900 3950 0    60   Input ~ 0
LM35
Text GLabel 6550 4850 1    60   Input ~ 0
LM35
Wire Wire Line
	6550 4850 6550 4950
Text GLabel 1700 4000 0    60   Input ~ 0
ASC172
Text GLabel 5900 4050 0    60   Input ~ 0
ASC172
Text GLabel 6250 4850 1    60   Input ~ 0
ASC172
Wire Wire Line
	1700 4000 2400 4000
Wire Wire Line
	6250 4850 6250 4950
Text GLabel 5600 6850 0    60   Input ~ 0
IR
Text GLabel 8900 3500 0    60   Input ~ 0
IR
Wire Wire Line
	9050 3500 8900 3500
Text GLabel 4300 5950 2    60   Input ~ 0
TENSION
Text GLabel 5900 4350 0    60   Input ~ 0
TENSION
Wire Wire Line
	4300 5950 4200 5950
Text GLabel 7800 4900 0    60   Input ~ 0
PWM
Text GLabel 7100 2600 2    60   Input ~ 0
PWM
Text GLabel 6500 1750 0    60   Input ~ 0
DT_1
Text GLabel 8450 2450 2    60   Input ~ 0
DT_1
Text GLabel 6500 1650 0    60   Input ~ 0
SCK_1
Text GLabel 8450 2350 2    60   Input ~ 0
SCK_1
Wire Wire Line
	8450 2350 8300 2350
Wire Wire Line
	8450 2450 8300 2450
Wire Wire Line
	6500 1650 6850 1650
Wire Wire Line
	6500 1750 6850 1750
$Comp
L HX711 J5
U 1 1 57BC2F87
P 9050 1400
F 0 "J5" H 9050 850 60  0000 C CNN
F 1 "HX711" H 9050 1350 60  0000 C CNN
F 2 "" H 9050 1400 60  0000 C CNN
F 3 "" H 9050 1400 60  0000 C CNN
	1    9050 1400
	1    0    0    -1  
$EndComp
Text GLabel 8300 1550 0    60   Input ~ 0
+5V
Wire Wire Line
	8300 1550 8600 1550
$Comp
L GND #PWR09
U 1 1 57BC3021
P 8300 1850
F 0 "#PWR09" H 8300 1850 30  0001 C CNN
F 1 "GND" H 8300 1780 30  0001 C CNN
F 2 "" H 8300 1850 60  0000 C CNN
F 3 "" H 8300 1850 60  0000 C CNN
	1    8300 1850
	0    1    1    0   
$EndComp
Wire Wire Line
	8300 1850 8600 1850
Text GLabel 8450 2750 2    60   Input ~ 0
SCK_2
Text GLabel 8450 2850 2    60   Input ~ 0
DT_2
Text GLabel 8300 1650 0    60   Input ~ 0
SCK_2
Text GLabel 8300 1750 0    60   Input ~ 0
DT_2
Wire Wire Line
	8300 1650 8600 1650
Wire Wire Line
	8600 1750 8300 1750
Wire Wire Line
	6150 4350 5900 4350
Wire Wire Line
	4200 6500 4200 6650
Wire Wire Line
	4200 6650 3650 6650
$Comp
L GND #PWR010
U 1 1 57BC33D8
P 3900 6800
F 0 "#PWR010" H 3900 6800 30  0001 C CNN
F 1 "GND" H 3900 6730 30  0001 C CNN
F 2 "" H 3900 6800 60  0000 C CNN
F 3 "" H 3900 6800 60  0000 C CNN
	1    3900 6800
	1    0    0    -1  
$EndComp
Wire Wire Line
	3900 6800 3900 6650
Connection ~ 3900 6650
Wire Wire Line
	6250 5500 6550 5500
$Comp
L GND #PWR011
U 1 1 57BC34C4
P 6400 5600
F 0 "#PWR011" H 6400 5600 30  0001 C CNN
F 1 "GND" H 6400 5530 30  0001 C CNN
F 2 "" H 6400 5600 60  0000 C CNN
F 3 "" H 6400 5600 60  0000 C CNN
	1    6400 5600
	1    0    0    -1  
$EndComp
Wire Wire Line
	6400 5600 6400 5500
Connection ~ 6400 5500
Wire Wire Line
	6150 3850 6000 3850
$Comp
L GND #PWR012
U 1 1 57BC35BE
P 5350 3850
F 0 "#PWR012" H 5350 3850 30  0001 C CNN
F 1 "GND" H 5350 3780 30  0001 C CNN
F 2 "" H 5350 3850 60  0000 C CNN
F 3 "" H 5350 3850 60  0000 C CNN
	1    5350 3850
	0    1    1    0   
$EndComp
Wire Wire Line
	5350 3850 5500 3850
$Comp
L 4N25 IC1
U 1 1 57BC36AE
P 8950 5000
F 0 "IC1" H 8740 5190 40  0000 C CNN
F 1 "4N25" H 9130 4810 40  0000 C CNN
F 2 "DIP6" H 8740 4820 30  0000 C CIN
F 3 "~" H 8950 5000 60  0000 C CNN
	1    8950 5000
	1    0    0    -1  
$EndComp
$Comp
L R R2
U 1 1 57BC36D3
P 8200 4900
F 0 "R2" V 8280 4900 40  0000 C CNN
F 1 "R" V 8207 4901 40  0000 C CNN
F 2 "~" V 8130 4900 30  0000 C CNN
F 3 "~" H 8200 4900 30  0000 C CNN
	1    8200 4900
	0    1    1    0   
$EndComp
Wire Wire Line
	8600 4900 8450 4900
Wire Wire Line
	7950 4900 7800 4900
$Comp
L GND #PWR013
U 1 1 57BC37EA
P 8400 5100
F 0 "#PWR013" H 8400 5100 30  0001 C CNN
F 1 "GND" H 8400 5030 30  0001 C CNN
F 2 "" H 8400 5100 60  0000 C CNN
F 3 "" H 8400 5100 60  0000 C CNN
	1    8400 5100
	0    1    1    0   
$EndComp
Wire Wire Line
	8600 5100 8400 5100
$Comp
L CONN_3 K1
U 1 1 57BC3880
P 10750 5100
F 0 "K1" V 10700 5100 50  0000 C CNN
F 1 "CONN_3" V 10800 5100 40  0000 C CNN
F 2 "" H 10750 5100 60  0000 C CNN
F 3 "" H 10750 5100 60  0000 C CNN
	1    10750 5100
	1    0    0    -1  
$EndComp
$Comp
L R R4
U 1 1 57BC38B2
P 9600 5350
F 0 "R4" V 9680 5350 40  0000 C CNN
F 1 "R" V 9607 5351 40  0000 C CNN
F 2 "~" V 9530 5350 30  0000 C CNN
F 3 "~" H 9600 5350 30  0000 C CNN
	1    9600 5350
	1    0    0    -1  
$EndComp
Wire Wire Line
	10400 5000 9300 5000
Wire Wire Line
	9300 5100 10400 5100
Connection ~ 9600 5100
Wire Wire Line
	9600 5600 10000 5600
Wire Wire Line
	10000 5600 10000 5200
Wire Wire Line
	10000 5200 10400 5200
NoConn ~ 9300 4900
NoConn ~ 6150 2900
NoConn ~ 6150 4150
Wire Wire Line
	7100 2600 7050 2600
Wire Wire Line
	7050 2600 7050 2500
Wire Wire Line
	7050 2500 6950 2500
NoConn ~ 6150 4250
$Comp
L LM358N U2
U 1 1 57BC69AC
P 6350 6750
F 0 "U2" H 6300 6950 60  0000 L CNN
F 1 "LM358N" H 6300 6500 60  0000 L CNN
F 2 "" H 6350 6750 60  0000 C CNN
F 3 "" H 6350 6750 60  0000 C CNN
	1    6350 6750
	1    0    0    -1  
$EndComp
Wire Wire Line
	5600 6850 5850 6850
Text GLabel 5150 5750 0    60   Input ~ 0
+3.3V
Wire Wire Line
	6250 5750 6250 6350
$Comp
L GND #PWR014
U 1 1 57BC6A9C
P 5800 7550
F 0 "#PWR014" H 5800 7550 30  0001 C CNN
F 1 "GND" H 5800 7480 30  0001 C CNN
F 2 "" H 5800 7550 60  0000 C CNN
F 3 "" H 5800 7550 60  0000 C CNN
	1    5800 7550
	1    0    0    -1  
$EndComp
Wire Wire Line
	6250 7150 6250 7450
$Comp
L R R6
U 1 1 57BC6B92
P 5250 6100
F 0 "R6" V 5330 6100 40  0000 C CNN
F 1 "R" V 5257 6101 40  0000 C CNN
F 2 "~" V 5180 6100 30  0000 C CNN
F 3 "~" H 5250 6100 30  0000 C CNN
	1    5250 6100
	1    0    0    -1  
$EndComp
$Comp
L POT RV1
U 1 1 57BC6BC4
P 5250 7100
F 0 "RV1" H 5250 7000 50  0000 C CNN
F 1 "POT" H 5250 7100 50  0000 C CNN
F 2 "~" H 5250 7100 60  0000 C CNN
F 3 "~" H 5250 7100 60  0000 C CNN
	1    5250 7100
	0    1    1    0   
$EndComp
Wire Wire Line
	6250 5750 5150 5750
Wire Wire Line
	5250 7350 5250 7450
Wire Wire Line
	5250 7450 6250 7450
Wire Wire Line
	5800 7550 5800 7450
Connection ~ 5800 7450
Wire Wire Line
	5250 6850 5250 6350
Wire Wire Line
	5850 6650 5250 6650
Connection ~ 5250 6650
Wire Wire Line
	5400 7100 5400 6650
Connection ~ 5400 6650
Wire Wire Line
	5250 5850 5250 5750
Connection ~ 5250 5750
Text GLabel 7000 6750 2    60   Input ~ 0
PTB20
Text GLabel 7100 4250 2    60   Input ~ 0
PTB20
Wire Wire Line
	7100 4250 6950 4250
Wire Wire Line
	6850 6750 7000 6750
Wire Wire Line
	6150 3950 5900 3950
Wire Wire Line
	6150 4050 5900 4050
NoConn ~ 7500 2350
NoConn ~ 7500 2450
Wire Wire Line
	8300 2750 8450 2750
Wire Wire Line
	8450 2850 8300 2850
NoConn ~ 8300 2550
$EndSCHEMATC
